[{"id":"session-3876","title":"Opening Keynotes: Business Transformation through CXM","category":"Opening","room":"Main Auditorium","date":"May 15, Wednesday","time":"09:00"}
,{"id":"session-3745","title":"ADM5 - From Reporting to Automation: How a data-led mindset can change your organisation","category":"ADM","room":"Adobe Breakout Room 8","date":"May 15, Wednesday","time":"12:00","detailsURL":"https://summit-emea.adobe.com/emea/session/ADM5/from-reporting-to-automation-how-a-data-led-mindset-can-change-your-organisation"}
,{"id":"session-3632","title":"ADV4 - Digital Advertising: Then and now","category":"ADV","room":"Adobe Breakout Room 2","date":"May 15, Wednesday","time":"12:00","detailsURL":"https://summit-emea.adobe.com/emea/session/ADV4/digital-advertising-then-and-now"}
,{"id":"session-3686","title":"AEP1 - Adobe Experience Platform: The heart of Adobe Experience Cloud","category":"AEP","room":"Adobe Breakout Room 13","date":"May 15, Wednesday","time":"12:00","detailsURL":"https://summit-emea.adobe.com/emea/session/AEP1/adobe-experience-platform-the-heart-of-adobe-experience-cloud"}
,{"id":"session-3707","title":"B2B1 - The (bumpy) road to CMO: Actionable insights in fearless marketing","category":"B2B","room":"Adobe Breakout Room 4","date":"May 15, Wednesday","time":"12:00","detailsURL":"https://summit-emea.adobe.com/emea/session/B2B1/the-bumpy-road-to-cmo-actionable-insights-in-fearless-marketing"}
,{"id":"session-3612","title":"CXM2 - Experience Manager best practices for Headless Omnichannel Experiences","category":"CXM","room":"Adobe Breakout Room 3","date":"May 15, Wednesday","time":"12:00","detailsURL":"https://summit-emea.adobe.com/emea/session/CXM2/experience-manager-best-practices-for-headless-omnichannel-experiences"}
,{"id":"session-3697","title":"EOM7 - Mobile moments and engagement – Getting started with Adobe Campaign","category":"EOM","room":"Adobe Breakout Room 9","date":"May 15, Wednesday","time":"12:00","detailsURL":"https://summit-emea.adobe.com/emea/session/EOM7/eom7"}
,{"id":"session-3608","title":"IND1 - Digital Trends in Automotive 2019 and how BMW is driving customer centricity","category":"IND","room":"Adobe Breakout Room 5","date":"May 15, Wednesday","time":"12:00","detailsURL":"https://summit-emea.adobe.com/emea/session/IND1/ind1"}
,{"id":"session-3657","title":"IND2 - The rise of Direct to Consumer: How technology and people are driving transformation in Media and Communications","category":"IND","room":"Adobe Breakout Room 6","date":"May 15, Wednesday","time":"12:00","detailsURL":"https://summit-emea.adobe.com/emea/session/IND2/the-rise-of-direct-to-consumer-how-technology-and-people-are-driving-transformation-in-media-and-communications"}
,{"id":"session-3658","title":"IND3 - Make experience your business: Digital transformation in Financial Services","category":"IND","room":"Adobe Breakout Room 7","date":"May 15, Wednesday","time":"12:00","detailsURL":"https://summit-emea.adobe.com/emea/session/IND3/make-experience-your-business-digital-transformation-in-financial-services"}
,{"id":"session-3659","title":"IND4 - Personalisation, data and the experience business of travel","category":"IND","room":"Adobe Breakout Room 10","date":"May 15, Wednesday","time":"12:00","detailsURL":"https://summit-emea.adobe.com/emea/session/IND4/ind4"}
,{"id":"session-3656","title":"IND5 - The Digital Transformation journey of a diversified retailer","category":"IND","room":"Adobe Breakout Room 11","date":"May 15, Wednesday","time":"12:00","detailsURL":"https://summit-emea.adobe.com/emea/session/IND5/the-digital-transformation-journey-of-a-diversified-retailer"}
,{"id":"session-3660","title":"IND6 - B2B excellence in the experience era","category":"IND","room":"Adobe Breakout Room 1","date":"May 15, Wednesday","time":"12:00","detailsURL":"https://summit-emea.adobe.com/emea/session/IND6/b2b-excellence-in-the-experience-era"}
,{"id":"session-3647","title":"LAB1 - Explore the New Adobe Analytics 2.0 APIs","category":"LAB","room":"LAB Platinum Suite 1","date":"May 15, Wednesday","time":"12:00","detailsURL":"https://summit-emea.adobe.com/emea/session/LAB1/explore-the-new-adobe-analytics-2-0-apis"}
,{"id":"session-3648","title":"LAB2 - Getting Started with AEM 6.5","category":"LAB","room":"LAB Platinum Suite 2","date":"May 15, Wednesday","time":"12:00","detailsURL":"https://summit-emea.adobe.com/emea/session/LAB2/getting-started-with-aem-6-5"}
,{"id":"session-3649","title":"LAB3 - Adobe Experience Platform Launch: Getting started","category":"LAB","room":"LAB Platinum Suite 3","date":"May 15, Wednesday","time":"12:00","detailsURL":"https://summit-emea.adobe.com/emea/session/LAB3/adobe-experience-platform-launch-getting-started"}
,{"id":"session-3650","title":"LAB4 - A sneak peek into the Adobe Experience Platform, but now hands on","category":"LAB","room":"LAB Platinum Suite 4","date":"May 15, Wednesday","time":"12:00","detailsURL":"https://summit-emea.adobe.com/emea/session/LAB4/a-sneak-peek-into-the-adobe-experience-platform-but-now-hands-on"}
,{"id":"session-3662","title":"PER3 - Anatomy of an industry-leading personalisation practice","category":"PER","room":"Adobe Breakout Room 12","date":"May 15, Wednesday","time":"12:00","detailsURL":"https://summit-emea.adobe.com/emea/session/PER3/anatomy-of-an-industry-leading-personalisation-practice"}
,{"id":"session-3832","title":"SOL1 - AEM Sites 101: Agile Content Management solution for Marketers and IT","category":"SOL","room":"Solution Overview Room 14","date":"May 15, Wednesday","time":"12:00","detailsURL":"https://summit-emea.adobe.com/emea/session/SOL1/sol1"}
,{"id":"session-3886","title":"Tour 1 - Guided Tour through Digital Transformation","category":"Tour","room":"Adobe Stand, Community Pavilion","date":"May 15, Wednesday","time":"12:00","detailsURL":"https://summit-emea.adobe.com/emea/session/Tour 1/guided-tour-through-digital-transformation"}
,{"id":"session-3834","title":"SOL2 - Get to know Adobe Target - The personalisation foundation of Adobe Experience Cloud","category":"SOL","room":"Solution Overview Room 14","date":"May 15, Wednesday","time":"12:30","detailsURL":"https://summit-emea.adobe.com/emea/session/SOL2/get-to-know-adobe-target-the-personalisation-foundation-of-adobe-experience-cloud"}
,{"id":"session-3720","title":"ADM12 - The Experience DMP is here!","category":"ADM","room":"Adobe Breakout Room 11","date":"May 15, Wednesday","time":"13:00","detailsURL":"https://summit-emea.adobe.com/emea/session/ADM12/the-experience-dmp-is-here"}
,{"id":"session-3610","title":"ADM3 - Our latest and greatest Adobe Analytics tips","category":"ADM","room":"Adobe Breakout Room 10","date":"May 15, Wednesday","time":"13:00","detailsURL":"https://summit-emea.adobe.com/emea/session/ADM3/our-latest-and-greatest-adobe-analytics-tips"}
,{"id":"session-3630","title":"ADV2 - The future of TV advertising is automation","category":"ADV","room":"Adobe Breakout Room 2","date":"May 15, Wednesday","time":"13:00","detailsURL":"https://summit-emea.adobe.com/emea/session/ADV2/the-future-of-tv-advertising-is-automation"}
,{"id":"session-3862","title":"AEP7 - Privacy & Adobe Experience Platform","category":"AEP","room":"Adobe Breakout Room 13","date":"May 15, Wednesday","time":"13:00","detailsURL":"https://summit-emea.adobe.com/emea/session/AEP7/privacy-adobe-experience-platform"}
,{"id":"session-3710","title":"B2B7 - Better together: The unrivalled B2B Adobe Experience Cloud","category":"B2B","room":"Adobe Breakout Room 4","date":"May 15, Wednesday","time":"13:00","detailsURL":"https://summit-emea.adobe.com/emea/session/B2B7/b2b7"}
,{"id":"session-3751","title":"CDN1 - How to use immersive technology to communicate, inspire and win business with Foster + Partners","category":"CDN","room":"Adobe Breakout Room 8","date":"May 15, Wednesday","time":"13:00","detailsURL":"https://summit-emea.adobe.com/emea/session/CDN1/cdn1"}
,{"id":"session-3738","title":"CXM19 - HSBC: The evolution from paper to a digital customer journey","category":"CXM","room":"Adobe Breakout Room 3","date":"May 15, Wednesday","time":"13:00","detailsURL":"https://summit-emea.adobe.com/emea/session/CXM19/cxm19"}
,{"id":"session-3614","title":"CXM4 - Adobe Experience Manager Sites: Top innovations","category":"CXM","room":"Adobe Breakout Room 5","date":"May 15, Wednesday","time":"13:00","detailsURL":"https://summit-emea.adobe.com/emea/session/CXM4/adobe-experience-manager-sites-top-innovations"}
,{"id":"session-3701","title":"EOM1 - Depart the everyday! Taking Customer Experience to new heights with Virgin Atlantic","category":"EOM","room":"Adobe Breakout Room 6","date":"May 15, Wednesday","time":"13:00","detailsURL":"https://summit-emea.adobe.com/emea/session/EOM1/eom1"}
,{"id":"session-3695","title":"EOM10 - The email journey: deliverability strategies to maximise effectiveness","category":"EOM","room":"Adobe Breakout Room 9","date":"May 15, Wednesday","time":"13:00","detailsURL":"https://summit-emea.adobe.com/emea/session/EOM10/eom10"}
,{"id":"session-3715","title":"INO1 - People powered transformation","category":"INO","room":"Adobe Breakout Room 1","date":"May 15, Wednesday","time":"13:00","detailsURL":"https://summit-emea.adobe.com/emea/session/INO1/ino1"}
,{"id":"session-3820","title":"LAB33 - Microsoft Dynamics and Adobe Experience Cloud","category":"LAB","room":"LAB Platinum Suite 1","date":"May 15, Wednesday","time":"13:00","detailsURL":"https://summit-emea.adobe.com/emea/session/LAB33/microsoft-dynamics-and-adobe-experience-cloud"}
,{"id":"session-3818","title":"LAB34 - I’m hooked to streaming media: Tips for Video and Audio Analytics","category":"LAB","room":"LAB Platinum Suite 2","date":"May 15, Wednesday","time":"13:00","detailsURL":"https://summit-emea.adobe.com/emea/session/LAB34/lab34"}
,{"id":"session-3821","title":"LAB35 - Easily make video content for social media, online ads, marketing and more ","category":"LAB","room":"LAB Platinum Suite 3","date":"May 15, Wednesday","time":"13:00","detailsURL":"https://summit-emea.adobe.com/emea/session/LAB35/lab35"}
,{"id":"session-3822","title":"LAB36 - A sneak peek into the Adobe Experience Platform, but now hands on!","category":"LAB","room":"LAB Platinum Suite 4","date":"May 15, Wednesday","time":"13:00","detailsURL":"https://summit-emea.adobe.com/emea/session/LAB36/lab36"}
,{"id":"session-3741","title":"OPS1 - Lessons from the education sector on digital transformation","category":"OPS","room":"Adobe Breakout Room 7","date":"May 15, Wednesday","time":"13:00","detailsURL":"https://summit-emea.adobe.com/emea/session/OPS1/lessons-from-the-education-sector-on-digital-transformation"}
,{"id":"session-3712","title":"PER4 - Adobe Research Labs: innovating data science from concept to reality","category":"PER","room":"Adobe Breakout Room 12","date":"May 15, Wednesday","time":"13:00","detailsURL":"https://summit-emea.adobe.com/emea/session/PER4/adobe-research-labs-innovating-data-science-from-concept-to-reality"}
,{"id":"session-3833","title":"SOL3 - AEM Assets 101: Intelligent enterprise digital asset management for marketers and IT","category":"SOL","room":"Solution Overview Room 14","date":"May 15, Wednesday","time":"13:00","detailsURL":"https://summit-emea.adobe.com/emea/session/SOL3/sol3"}
,{"id":"session-3887","title":"Tour 2 - Guided Tour through Digital Transformation","category":"Tour","room":"Adobe Stand, Community Pavilion","date":"May 15, Wednesday","time":"13:00","detailsURL":"https://summit-emea.adobe.com/emea/session/Tour 2/guided-tour-through-digital-transformation"}
,{"id":"session-3827","title":"SOL4 - Deliver epic B2B experiences with Marketo Engage","category":"SOL","room":"Solution Overview Room 14","date":"May 15, Wednesday","time":"13:30","detailsURL":"https://summit-emea.adobe.com/emea/session/SOL4/sol4"}
,{"id":"session-3628","title":"ADM4 - Moving beyond last click: Tips for Attribution IQ in Analysis Workspace","category":"ADM","room":"Adobe Breakout Room 10","date":"May 15, Wednesday","time":"14:00","detailsURL":"https://summit-emea.adobe.com/emea/session/ADM4/moving-beyond-last-click-tips-for-attribution-iq-in-analysis-workspace"}
,{"id":"session-3644","title":"ADM8 - DMP at a CPG: Audience Management at scale with Unilever","category":"ADM","room":"Adobe Breakout Room 11","date":"May 15, Wednesday","time":"14:00","detailsURL":"https://summit-emea.adobe.com/emea/session/ADM8/adm8"}
,{"id":"session-3756","title":"B2B3 - How Marketo can tame the GDPR data retention monster","category":"B2B","room":"Adobe Breakout Room 4","date":"May 15, Wednesday","time":"14:00","detailsURL":"https://summit-emea.adobe.com/emea/session/B2B3/how-marketo-can-tame-the-gdpr-data-retention-monster"}
,{"id":"session-3723","title":"CDN2 - TFL – Fit for purpose. How a 100 year old customer experience framework is even more important now!","category":"CDN","room":"Adobe Breakout Room 8","date":"May 15, Wednesday","time":"14:00","detailsURL":"https://summit-emea.adobe.com/emea/session/CDN2/cdn2"}
,{"id":"session-3611","title":"CXM1 - Adobe Experience Manager Rock Star: The top tips are here","category":"CXM","room":"Adobe Breakout Room 5","date":"May 15, Wednesday","time":"14:00","detailsURL":"https://summit-emea.adobe.com/emea/session/CXM1/adobe-experience-manager-rock-star-the-top-tips-are-here"}
,{"id":"session-3640","title":"CXM17 - Meet Dexter: The world-class Experience Manager implementation of Adobe.com","category":"CXM","room":"Adobe Breakout Room 3","date":"May 15, Wednesday","time":"14:00","detailsURL":"https://summit-emea.adobe.com/emea/session/CXM17/meet-dexter-the-world-class-experience-manager-implementation-of-adobe-com"}
,{"id":"session-3727","title":"CXM23 - Transforming the customer experience. Adobe Experience solutions back the One Roche Vision","category":"CXM","room":"Adobe Breakout Room 2","date":"May 15, Wednesday","time":"14:00","detailsURL":"https://summit-emea.adobe.com/emea/session/CXM23/transforming-the-customer-experience-adobe-experience-solutions-back-the-one-roche-vision"}
,{"id":"session-3635","title":"EDC1 - Creating and executing an Experience Driven Commerce strategy","category":"EDC","room":"Adobe Breakout Room 13","date":"May 15, Wednesday","time":"14:00","detailsURL":"https://summit-emea.adobe.com/emea/session/EDC1/creating-and-executing-an-experience-driven-commerce-strategy"}
,{"id":"session-3703","title":"EOM9 - You have Adobe Campaign, how do you make it perform? Learnings from NOW TV","category":"EOM","room":"Adobe Breakout Room 6","date":"May 15, Wednesday","time":"14:00","detailsURL":"https://summit-emea.adobe.com/emea/session/EOM9/eom9"}
,{"id":"session-3716","title":"INO2 - Creativity’s bottom line: How winning companies turn creativity into business value and growth","category":"INO","room":"Adobe Breakout Room 1","date":"May 15, Wednesday","time":"14:00","detailsURL":"https://summit-emea.adobe.com/emea/session/INO2/creativity-s-bottom-line-how-winning-companies-turn-creativity-into-business-value-and-growth"}
,{"id":"session-3651","title":"LAB5 - I can see clearly now: Analytics and Power BI","category":"LAB","room":"LAB Platinum Suite 1","date":"May 15, Wednesday","time":"14:00","detailsURL":"https://summit-emea.adobe.com/emea/session/LAB5/i-can-see-clearly-now-analytics-and-power-bi"}
,{"id":"session-3652","title":"LAB6 - Seamlessly integrate Forms with Adobe Campaign Standard Using Adobe I/O","category":"LAB","room":"LAB Platinum Suite 2","date":"May 15, Wednesday","time":"14:00","detailsURL":"https://summit-emea.adobe.com/emea/session/LAB6/seamlessly-integrate-forms-with-adobe-campaign-standard-using-adobe-i-o"}
,{"id":"session-3653","title":"LAB7 - Deploy Adobe Experience Cloud on a website in 45 minutes using Adobe Launch","category":"LAB","room":"LAB Platinum Suite 3","date":"May 15, Wednesday","time":"14:00","detailsURL":"https://summit-emea.adobe.com/emea/session/LAB7/lab7"}
,{"id":"session-3673","title":"LAB8 - Adobe Experience Platform: Data ingestion through Launch","category":"LAB","room":"LAB Platinum Suite 4","date":"May 15, Wednesday","time":"14:00","detailsURL":"https://summit-emea.adobe.com/emea/session/LAB8/adobe-experience-platform-data-ingestion-through-launch"}
,{"id":"session-3730","title":"OPS8 - Eight years with the Adobe Experience Cloud: Innovation and integration within a highly-regulated environment","category":"OPS","room":"Adobe Breakout Room 9","date":"May 15, Wednesday","time":"14:00","detailsURL":"https://summit-emea.adobe.com/emea/session/OPS8/ops8"}
,{"id":"session-3764","title":"OPS9 - How centralising online data helped to deliver a seamless and personalised customer journey","category":"OPS","room":"Adobe Breakout Room 7","date":"May 15, Wednesday","time":"14:00","detailsURL":"https://summit-emea.adobe.com/emea/session/OPS9/ops9"}
,{"id":"session-3753","title":"PER8 - Nine things you wish you’d known – accelerating optimisation at TUI UK","category":"PER","room":"Adobe Breakout Room 12","date":"May 15, Wednesday","time":"14:00","detailsURL":"https://summit-emea.adobe.com/emea/session/PER8/per8"}
,{"id":"session-3854","title":"SOL5 - Adobe Experience Platform","category":"SOL","room":"Solution Overview Room 14","date":"May 15, Wednesday","time":"14:00","detailsURL":"https://summit-emea.adobe.com/emea/session/SOL5/sol5"}
,{"id":"session-3888","title":"Tour 3 - Guided Tour through Digital Transformation","category":"Tour","room":"Adobe Stand, Community Pavilion","date":"May 15, Wednesday","time":"14:00","detailsURL":"https://summit-emea.adobe.com/emea/session/Tour 3/guided-tour-through-digital-transformation"}
,{"id":"session-3848","title":"SOL6 - Data Management Basics with Adobe Audience Manager","category":"SOL","room":"Solution Overview Room 14","date":"May 15, Wednesday","time":"14:30","detailsURL":"https://summit-emea.adobe.com/emea/session/SOL6/data-management-basics-with-adobe-audience-manager"}
,{"id":"session-3643","title":"ADM1 - Holistic data flows across Adobe Experience Cloud","category":"ADM","room":"Adobe Breakout Room 11","date":"May 15, Wednesday","time":"15:00","detailsURL":"https://summit-emea.adobe.com/emea/session/ADM1/holistic-data-flows-across-adobe-experience-cloud"}
,{"id":"session-3746","title":"ADM7 - The Virtual Analyst: Using AI to augment your analytics skills","category":"ADM","room":"Adobe Breakout Room 10","date":"May 15, Wednesday","time":"15:00","detailsURL":"https://summit-emea.adobe.com/emea/session/ADM7/the-virtual-analyst-using-ai-to-augment-your-analytics-skills"}
,{"id":"session-3705","title":"B2B4 - To renovate or rebuild? Marketo's own journey to a new instance","category":"B2B","room":"Adobe Breakout Room 4","date":"May 15, Wednesday","time":"15:00","detailsURL":"https://summit-emea.adobe.com/emea/session/B2B4/b2b4"}
,{"id":"session-3724","title":"CDN3 - Pentland Brands - You may not know Pentland ....but you will know our brands","category":"CDN","room":"Adobe Breakout Room 8","date":"May 15, Wednesday","time":"15:00","detailsURL":"https://summit-emea.adobe.com/emea/session/CDN3/pentland-brands-you-may-not-know-pentland-but-you-will-know-our-brands"}
,{"id":"session-3621","title":"CXM11 - Better agility and availability: The power of Experience Manager in the Cloud","category":"CXM","room":"Adobe Breakout Room 3","date":"May 15, Wednesday","time":"15:00","detailsURL":"https://summit-emea.adobe.com/emea/session/CXM11/better-agility-and-availability-the-power-of-experience-manager-in-the-cloud"}
,{"id":"session-3726","title":"CXM22 - Crossing the chasm from process to product","category":"CXM","room":"Adobe Breakout Room 2","date":"May 15, Wednesday","time":"15:00","detailsURL":"https://summit-emea.adobe.com/emea/session/CXM22/cxm22"}
,{"id":"session-3617","title":"CXM7 - What's new in Adobe Experience Manager Assets: Top DAM Features","category":"CXM","room":"Adobe Breakout Room 5","date":"May 15, Wednesday","time":"15:00","detailsURL":"https://summit-emea.adobe.com/emea/session/CXM7/what-s-new-in-adobe-experience-manager-assets-top-dam-features"}
,{"id":"session-3759","title":"EDC3 - How OSPREY LONDON is finding clarity in an evolving ecommerce landscape","category":"EDC","room":"Adobe Breakout Room 13","date":"May 15, Wednesday","time":"15:00","detailsURL":"https://summit-emea.adobe.com/emea/session/EDC3/how-osprey-london-is-finding-clarity-in-an-evolving-ecommerce-landscape"}
,{"id":"session-3699","title":"EOM2 - Adobe Campaign tips & tricks for advanced marketers and IT administrators","category":"EOM","room":"Adobe Breakout Room 6","date":"May 15, Wednesday","time":"15:00","detailsURL":"https://summit-emea.adobe.com/emea/session/EOM2/eom2"}
,{"id":"session-3717","title":"INO3 - The Joy of Work: Ways to fix your work culture and fall in love with your job again","category":"INO","room":"Adobe Breakout Room 1","date":"May 15, Wednesday","time":"15:00","detailsURL":"https://summit-emea.adobe.com/emea/session/INO3/the-joy-of-work-ways-to-fix-your-work-culture-and-fall-in-love-with-your-job-again"}
,{"id":"session-3663","title":"LAB10 - Building a web experience foundation","category":"LAB","room":"LAB Platinum Suite 2","date":"May 15, Wednesday","time":"15:00","detailsURL":"https://summit-emea.adobe.com/emea/session/LAB10/building-a-web-experience-foundation"}
,{"id":"session-3664","title":"LAB11 - Authoring Extensions for Launch, by Adobe","category":"LAB","room":"LAB Platinum Suite 3","date":"May 15, Wednesday","time":"15:00","detailsURL":"https://summit-emea.adobe.com/emea/session/LAB11/authoring-extensions-for-launch-by-adobe"}
,{"id":"session-3654","title":"LAB12 - Adobe Experience Platform: Real Time Customer Profile","category":"LAB","room":"LAB Platinum Suite 4","date":"May 15, Wednesday","time":"15:00","detailsURL":"https://summit-emea.adobe.com/emea/session/LAB12/lab12"}
,{"id":"session-3655","title":"LAB9 - Ratchet up your knowledge of Analysis Workspace","category":"LAB","room":"LAB Platinum Suite 1","date":"May 15, Wednesday","time":"15:00","detailsURL":"https://summit-emea.adobe.com/emea/session/LAB9/ratchet-up-your-knowledge-of-analysis-workspace"}
,{"id":"session-3725","title":"OPS11 - Digital Transform[ACTION]: How illy is shifted to the new digital era","category":"OPS","room":"Adobe Breakout Room 9","date":"May 15, Wednesday","time":"15:00","detailsURL":"https://summit-emea.adobe.com/emea/session/OPS11/ops11"}
,{"id":"session-3704","title":"OPS5 - AI ethics by design","category":"OPS","room":"Adobe Breakout Room 7","date":"May 15, Wednesday","time":"15:00","detailsURL":"https://summit-emea.adobe.com/emea/session/OPS5/ai-ethics-by-design"}
,{"id":"session-3713","title":"PER5 - Customer Experience Revolution: How Alitalia uses Adobe Target with Adobe Experience Cloud to personalise every interaction","category":"PER","room":"Adobe Breakout Room 12","date":"May 15, Wednesday","time":"15:00","detailsURL":"https://summit-emea.adobe.com/emea/session/PER5/customer-experience-revolution-how-alitalia-uses-adobe-target-with-adobe-experience-cloud-to-personalise-every-interaction"}
,{"id":"session-3829","title":"SOL7 - AEM Forms 101: Upgrade your enrolment and communications experiences","category":"SOL","room":"Solution Overview Room 14","date":"May 15, Wednesday","time":"15:00","detailsURL":"https://summit-emea.adobe.com/emea/session/SOL7/sol7"}
,{"id":"session-3889","title":"Tour 4 - Guided Tour through Digital Transformation","category":"Tour","room":"Adobe Stand, Community Pavilion","date":"May 15, Wednesday","time":"15:00","detailsURL":"https://summit-emea.adobe.com/emea/session/Tour 4/guided-tour-through-digital-transformation"}
,{"id":"session-3850","title":"SOL8 - Adobe Campaign - Drive engagement by orchestrating customer experiences across channels","category":"SOL","room":"Solution Overview Room 14","date":"May 15, Wednesday","time":"15:30","detailsURL":"https://summit-emea.adobe.com/emea/session/SOL8/adobe-campaign-drive-engagement-by-orchestrating-customer-experiences-across-channels"}
,{"id":"session-3852","title":"SOL9 - Magento Commerce 101: Creating powerful B2C and B2B shopping experiences","category":"SOL","room":"Solution Overview Room 14","date":"May 15, Wednesday","time":"16:00","detailsURL":"https://summit-emea.adobe.com/emea/session/SOL9/sol9"}
,{"id":"session-3721","title":"ADM13 - Acronym-mageddon! Data Technologies everywhere","category":"ADM","room":"Adobe Breakout Room 11","date":"May 15, Wednesday","time":"16:15","detailsURL":"https://summit-emea.adobe.com/emea/session/ADM13/acronym-mageddon-data-technologies-everywhere"}
,{"id":"session-3711","title":"ADM18 - Accelerating and securing mobile and web analytics testing","category":"ADM","room":"Adobe Breakout Room 9","date":"May 15, Wednesday","time":"16:15","detailsURL":"https://summit-emea.adobe.com/emea/session/ADM18/adm18"}
,{"id":"session-3626","title":"ADM2 - Analytics Rock Stars 2019: Top tips and tricks","category":"ADM","room":"Adobe Breakout Room 10","date":"May 15, Wednesday","time":"16:15","detailsURL":"https://summit-emea.adobe.com/emea/session/ADM2/adm2"}
,{"id":"session-3634","title":"ADV6 - How analytics data is defining the future of search advertising","category":"ADV","room":"Adobe Breakout Room 2","date":"May 15, Wednesday","time":"16:15","detailsURL":"https://summit-emea.adobe.com/emea/session/ADV6/how-analytics-data-is-defining-the-future-of-search-advertising"}
,{"id":"session-3687","title":"AEP2 - Experience Data Model: The Rosetta Stone of Experience Business","category":"AEP","room":"Adobe Breakout Room 13","date":"May 15, Wednesday","time":"16:15","detailsURL":"https://summit-emea.adobe.com/emea/session/AEP2/experience-data-model-the-rosetta-stone-of-experience-business"}
,{"id":"session-3755","title":"B2B5 - Leveraging customer feedback throughout the customer lifecycle","category":"B2B","room":"Adobe Breakout Room 4","date":"May 15, Wednesday","time":"16:15","detailsURL":"https://summit-emea.adobe.com/emea/session/B2B5/leveraging-customer-feedback-throughout-the-customer-lifecycle"}
,{"id":"session-3642","title":"CXM15 - Merck’s centralised DAM connects marketers from across the globe to drive campaign success","category":"CXM","room":"Adobe Breakout Room 5","date":"May 15, Wednesday","time":"16:15","detailsURL":"https://summit-emea.adobe.com/emea/session/CXM15/cxm15"}
,{"id":"session-3733","title":"CXM20 - How digital is influencing strategies across the automotive and banking industries - meet Audi & Raiffeisen Bank","category":"CXM","room":"Adobe Breakout Room 8","date":"May 15, Wednesday","time":"16:15","detailsURL":"https://summit-emea.adobe.com/emea/session/CXM20/cxm20"}
,{"id":"session-3615","title":"CXM5 - Building your digital foundation with Adobe Experience Manager Sites","category":"CXM","room":"Adobe Breakout Room 3","date":"May 15, Wednesday","time":"16:15","detailsURL":"https://summit-emea.adobe.com/emea/session/CXM5/building-your-digital-foundation-with-adobe-experience-manager-sites"}
,{"id":"session-3702","title":"EOM3 - Democratising Campaign Management – The global success story of Grundfos with Adobe Campaign Standard","category":"EOM","room":"Adobe Breakout Room 6","date":"May 15, Wednesday","time":"16:15","detailsURL":"https://summit-emea.adobe.com/emea/session/EOM3/democratising-campaign-management-the-global-success-story-of-grundfos-with-adobe-campaign-standard"}
,{"id":"session-3718","title":"INO4 - Innovation, AI and diversity","category":"INO","room":"Adobe Breakout Room 1","date":"May 15, Wednesday","time":"16:15","detailsURL":"https://summit-emea.adobe.com/emea/session/INO4/innovation-ai-and-diversity"}
,{"id":"session-3666","title":"LAB13 - Part human, part machine learning, all-powerful analyst","category":"LAB","room":"LAB Platinum Suite 1","date":"May 15, Wednesday","time":"16:15","detailsURL":"https://summit-emea.adobe.com/emea/session/LAB13/part-human-part-machine-learning-all-powerful-analyst"}
,{"id":"session-3667","title":"LAB14 - Enhance content creation and diffusion with Adobe Sensei and Adobe Target","category":"LAB","room":"LAB Platinum Suite 2","date":"May 15, Wednesday","time":"16:15","detailsURL":"https://summit-emea.adobe.com/emea/session/LAB14/enhance-content-creation-and-diffusion-with-adobe-sensei-and-adobe-target"}
,{"id":"session-3668","title":"LAB15 - Easily make video content for social media, online ads, marketing and more ","category":"LAB","room":"LAB Platinum Suite 3","date":"May 15, Wednesday","time":"16:15","detailsURL":"https://summit-emea.adobe.com/emea/session/LAB15/easily-make-video-content-for-social-media-online-ads-marketing-and-more"}
,{"id":"session-3665","title":"LAB16 - Adobe Experience Platform: Query Service","category":"LAB","room":"LAB Platinum Suite 4","date":"May 15, Wednesday","time":"16:15","detailsURL":"https://summit-emea.adobe.com/emea/session/LAB16/adobe-experience-platform-query-service"}
,{"id":"session-3742","title":"OPS4 - Creating the right culture to recruit the best","category":"OPS","room":"Adobe Breakout Room 7","date":"May 15, Wednesday","time":"16:15","detailsURL":"https://summit-emea.adobe.com/emea/session/OPS4/creating-the-right-culture-to-recruit-the-best"}
,{"id":"session-3739","title":"PER7 - Building an experience decision engine with Adobe Target and Adobe Sensei: NatWest highlights the architecture, culture and measurable results","category":"PER","room":"Adobe Breakout Room 12","date":"May 15, Wednesday","time":"16:15","detailsURL":"https://summit-emea.adobe.com/emea/session/PER7/per7"}
,{"id":"session-3890","title":"Tour 5 - Guided Tour through Digital Transformation","category":"Tour","room":"Adobe Stand, Community Pavilion","date":"May 15, Wednesday","time":"16:15","detailsURL":"https://summit-emea.adobe.com/emea/session/Tour 5/guided-tour-through-digital-transformation"}
,{"id":"session-3849","title":"SOL10 - Adobe Analytics 101: From data to insights","category":"SOL","room":"Solution Overview Room 14","date":"May 15, Wednesday","time":"16:30","detailsURL":"https://summit-emea.adobe.com/emea/session/SOL10/adobe-analytics-101-from-data-to-insights"}
,{"id":"session-3853","title":"SOL11 - Advertising at Adobe: Where ad tech meets martech and drives a connected advertising experience.","category":"SOL","room":"Solution Overview Room 14","date":"May 15, Wednesday","time":"17:00","detailsURL":"https://summit-emea.adobe.com/emea/session/SOL11/sol11"}
,{"id":"session-3627","title":"ADM10 - DMP 102: Launching a Data Management Strategy","category":"ADM","room":"Adobe Breakout Room 11","date":"May 15, Wednesday","time":"17:15","detailsURL":"https://summit-emea.adobe.com/emea/session/ADM10/dmp-102-launching-a-data-management-strategy"}
,{"id":"session-3749","title":"ADM17 - A data democratisation journey: From ticket queue to self-service","category":"ADM","room":"Adobe Breakout Room 10","date":"May 15, Wednesday","time":"17:15","detailsURL":"https://summit-emea.adobe.com/emea/session/ADM17/adm17"}
,{"id":"session-3633","title":"ADV5 - Integrating Ad Tech and Mar Tech to drive connected advertising experiences","category":"ADV","room":"Adobe Breakout Room 2","date":"May 15, Wednesday","time":"17:15","detailsURL":"https://summit-emea.adobe.com/emea/session/ADV5/integrating-ad-tech-and-mar-tech-to-drive-connected-advertising-experiences"}
,{"id":"session-3690","title":"AEP5 - Adobe Experience Platform Launch: Going beyond tagging","category":"AEP","room":"Adobe Breakout Room 13","date":"May 15, Wednesday","time":"17:15","detailsURL":"https://summit-emea.adobe.com/emea/session/AEP5/aep5"}
,{"id":"session-3709","title":"B2B6 - Diving down the funnel with account-based marketing","category":"B2B","room":"Adobe Breakout Room 4","date":"May 15, Wednesday","time":"17:15","detailsURL":"https://summit-emea.adobe.com/emea/session/B2B6/b2b6"}
,{"id":"session-3750","title":"CDN4 - Adopting a broadcast mentality to content:  How did NatWest and Green Rock scale-up a content production operation, whilst driving efficiency?","category":"CDN","room":"Adobe Breakout Room 8","date":"May 15, Wednesday","time":"17:15","detailsURL":"https://summit-emea.adobe.com/emea/session/CDN4/cdn4"}
,{"id":"session-3639","title":"CXM16 - The Digital Customer Experience Platform for the Lufthansa Hub Airlines","category":"CXM","room":"Adobe Breakout Room 5","date":"May 15, Wednesday","time":"17:15","detailsURL":"https://summit-emea.adobe.com/emea/session/CXM16/the-digital-customer-experience-platform-for-the-lufthansa-hub-airlines"}
,{"id":"session-3735","title":"CXM21 - Atlas Copco - Balancing solutions in a challenging digital environment","category":"CXM","room":"Adobe Breakout Room 9","date":"May 15, Wednesday","time":"17:15","detailsURL":"https://summit-emea.adobe.com/emea/session/CXM21/atlas-copco-balancing-solutions-in-a-challenging-digital-environment"}
,{"id":"session-3618","title":"CXM8 - Beyond Asset Management: Puig repurposes assets to create digital reseller showroom","category":"CXM","room":"Adobe Breakout Room 3","date":"May 15, Wednesday","time":"17:15","detailsURL":"https://summit-emea.adobe.com/emea/session/CXM8/beyond-asset-management-puig-repurposes-assets-to-create-digital-reseller-showroom"}
,{"id":"session-3700","title":"EOM4 - AI for marketers: Creating omnichannel experiences powered by Adobe Sensei","category":"EOM","room":"Adobe Breakout Room 6","date":"May 15, Wednesday","time":"17:15","detailsURL":"https://summit-emea.adobe.com/emea/session/EOM4/ai-for-marketers-creating-omnichannel-experiences-powered-by-adobe-sensei"}
,{"id":"session-3762","title":"INO6 - Stand up, stand out","category":"INO","room":"Adobe Breakout Room 1","date":"May 15, Wednesday","time":"17:15","detailsURL":"https://summit-emea.adobe.com/emea/session/INO6/ino6"}
,{"id":"session-3672","title":"LAB17 - Get stuff done with Adobe Document Cloud!","category":"LAB","room":"LAB Platinum Suite 1","date":"May 15, Wednesday","time":"17:15","detailsURL":"https://summit-emea.adobe.com/emea/session/LAB17/get-stuff-done-with-adobe-document-cloud"}
,{"id":"session-3671","title":"LAB18 - Hands-on with Adobe’s next phase of Experience Cloud privacy tools","category":"LAB","room":"LAB Platinum Suite 2","date":"May 15, Wednesday","time":"17:15","detailsURL":"https://summit-emea.adobe.com/emea/session/LAB18/hands-on-with-adobe-s-next-phase-of-experience-cloud-privacy-tools"}
,{"id":"session-3670","title":"LAB19 - Personalise offers and experiences with AI-powered personalisation","category":"LAB","room":"LAB Platinum Suite 3","date":"May 15, Wednesday","time":"17:15","detailsURL":"https://summit-emea.adobe.com/emea/session/LAB19/personalise-offers-and-experiences-with-ai-powered-personalisation"}
,{"id":"session-3669","title":"LAB20 - Adobe Experience Platform: Predict the future with Data Science Workspace","category":"LAB","room":"LAB Platinum Suite 4","date":"May 15, Wednesday","time":"17:15","detailsURL":"https://summit-emea.adobe.com/emea/session/LAB20/adobe-experience-platform-predict-the-future-with-data-science-workspace"}
,{"id":"session-3861","title":"OPS13 - Understanding experiences to affect real-time Digital Marketing outcomes","category":"OPS","room":"Adobe Breakout Room 7","date":"May 15, Wednesday","time":"17:15","detailsURL":"https://summit-emea.adobe.com/emea/session/OPS13/understanding-experiences-to-affect-real-time-digital-marketing-outcomes"}
,{"id":"session-3714","title":"PER6 - How Sky personalises across devices for customer experience perfection","category":"PER","room":"Adobe Breakout Room 12","date":"May 15, Wednesday","time":"17:15","detailsURL":"https://summit-emea.adobe.com/emea/session/PER6/per6"}
,{"id":"session-3891","title":"Tour 6 - Guided Tour through Digital Transformation","category":"Tour","room":"Adobe Stand, Community Pavilion","date":"May 15, Wednesday","time":"17:15","detailsURL":"https://summit-emea.adobe.com/emea/session/Tour 6/guided-tour-through-digital-transformation"}
,{"id":"session-3857","title":"SOL12 - Adobe Analytics 101: From insights to action","category":"SOL","room":"Solution Overview Room 14","date":"May 15, Wednesday","time":"17:30","detailsURL":"https://summit-emea.adobe.com/emea/session/SOL12/adobe-analytics-101-from-insights-to-action"}
,{"id":"session-3877","title":"Day 2 Keynotes & Sneaks: Transformative Leadership","category":"Day","room":"Main Auditorium","date":"May 16, Thursday","time":"09:00"}
,{"id":"session-3625","title":"ADM11 - Privacy is not a trend, but a differentiator","category":"ADM","room":"Adobe Breakout Room 11","date":"May 16, Thursday","time":"12:00","detailsURL":"https://summit-emea.adobe.com/emea/session/ADM11/privacy-is-not-a-trend-but-a-differentiator"}
,{"id":"session-3747","title":"ADM9 - Too hot for main stage: The future of Customer Experience Analytics","category":"ADM","room":"Adobe Breakout Room 10","date":"May 16, Thursday","time":"12:00","detailsURL":"https://summit-emea.adobe.com/emea/session/ADM9/adm9"}
,{"id":"session-3631","title":"ADV3 - In 2020, what will the Brand and Agency relationship look like?","category":"ADV","room":"Adobe Breakout Room 2","date":"May 16, Thursday","time":"12:00","detailsURL":"https://summit-emea.adobe.com/emea/session/ADV3/in-2020-what-will-the-brand-and-agency-relationship-look-like"}
,{"id":"session-3754","title":"B2B2 - Creating epic customer experiences","category":"B2B","room":"Adobe Breakout Room 4","date":"May 16, Thursday","time":"12:00","detailsURL":"https://summit-emea.adobe.com/emea/session/B2B2/creating-epic-customer-experiences"}
,{"id":"session-3729","title":"CDN5 - Sales acceleration: how Volvo Financial Services drives digital transformation with Adobe Sign","category":"CDN","room":"Adobe Breakout Room 8","date":"May 16, Thursday","time":"12:00","detailsURL":"https://summit-emea.adobe.com/emea/session/CDN5/sales-acceleration-how-volvo-financial-services-drives-digital-transformation-with-adobe-sign"}
,{"id":"session-3623","title":"CXM13 - BT achieves brand consistency through asset management","category":"CXM","room":"Adobe Breakout Room 5","date":"May 16, Thursday","time":"12:00","detailsURL":"https://summit-emea.adobe.com/emea/session/CXM13/bt-achieves-brand-consistency-through-asset-management"}
,{"id":"session-3641","title":"CXM14 - Modernising Adobe Experience Manager","category":"CXM","room":"Adobe Breakout Room 3","date":"May 16, Thursday","time":"12:00","detailsURL":"https://summit-emea.adobe.com/emea/session/CXM14/modernising-adobe-experience-manager"}
,{"id":"session-3636","title":"EDC2 - Meet Adobe’s new commerce solution – Magento Commerce","category":"EDC","room":"Adobe Breakout Room 13","date":"May 16, Thursday","time":"12:00","detailsURL":"https://summit-emea.adobe.com/emea/session/EDC2/meet-adobe-s-new-commerce-solution-magento-commerce"}
,{"id":"session-3694","title":"EOM6 - Don’t be a 10-percenter - Increase your adoption and maturity on Adobe Campaign Classic","category":"EOM","room":"Adobe Breakout Room 9","date":"May 16, Thursday","time":"12:00","detailsURL":"https://summit-emea.adobe.com/emea/session/EOM6/don-t-be-a-10-percenter-increase-your-adoption-and-maturity-on-adobe-campaign-classic"}
,{"id":"session-3696","title":"EOM8 - 5 years, 5 Solutions, 5 Learnings: How KBC optimised their teams for omni-channel marketing and sales success","category":"EOM","room":"Adobe Breakout Room 6","date":"May 16, Thursday","time":"12:00","detailsURL":"https://summit-emea.adobe.com/emea/session/EOM8/5-years-5-solutions-5-learnings-how-kbc-optimised-their-teams-for-omni-channel-marketing-and-sales-success"}
,{"id":"session-3740","title":"INO5 - Three challenges to master with Customer Intelligence to fuel your subscription business","category":"INO","room":"Adobe Breakout Room 1","date":"May 16, Thursday","time":"12:00","detailsURL":"https://summit-emea.adobe.com/emea/session/INO5/three-challenges-to-master-with-customer-intelligence-to-fuel-your-subscription-business"}
,{"id":"session-3674","title":"LAB21 - Campaign Orchestration walkthrough","category":"LAB","room":"LAB Platinum Suite 1","date":"May 16, Thursday","time":"12:00","detailsURL":"https://summit-emea.adobe.com/emea/session/LAB21/campaign-orchestration-walkthrough"}
,{"id":"session-3675","title":"LAB22 - Supercharge UX design and connect it to experience development and delivery","category":"LAB","room":"LAB Platinum Suite 2","date":"May 16, Thursday","time":"12:00","detailsURL":"https://summit-emea.adobe.com/emea/session/LAB22/supercharge-ux-design-and-connect-it-to-experience-development-and-delivery"}
,{"id":"session-3676","title":"LAB23 - Driving engaging ecommerce campaigns","category":"LAB","room":"LAB Platinum Suite 3","date":"May 16, Thursday","time":"12:00","detailsURL":"https://summit-emea.adobe.com/emea/session/LAB23/driving-engaging-ecommerce-campaigns"}
,{"id":"session-3677","title":"LAB24 - Ever wondered if you could build a serverless web application with UX testing and personalisation enabled?","category":"LAB","room":"LAB Platinum Suite 4","date":"May 16, Thursday","time":"12:00","detailsURL":"https://summit-emea.adobe.com/emea/session/LAB24/ever-wondered-if-you-could-build-a-serverless-web-application-with-ux-testing-and-personalisation-enabled"}
,{"id":"session-3743","title":"OPS6 - Digital transformation as a force for good – how Save the Children is joining the Experience era","category":"OPS","room":"Adobe Breakout Room 7","date":"May 16, Thursday","time":"12:00","detailsURL":"https://summit-emea.adobe.com/emea/session/OPS6/digital-transformation-as-a-force-for-good-how-save-the-children-is-joining-the-experience-era"}
,{"id":"session-3638","title":"PER2 - Top tips on personalisation with Adobe Target Recommendations","category":"PER","room":"Adobe Breakout Room 12","date":"May 16, Thursday","time":"12:00","detailsURL":"https://summit-emea.adobe.com/emea/session/PER2/per2"}
,{"id":"session-3828","title":"SOL13 - Adobe Campaign - Drive engagement by orchestrating customer experiences across channels","category":"SOL","room":"Solution Overview Room 14","date":"May 16, Thursday","time":"12:00","detailsURL":"https://summit-emea.adobe.com/emea/session/SOL13/sol13"}
,{"id":"session-3892","title":"Tour 7 - Guided Tour through Digital Transformation","category":"Tour","room":"Adobe Stand, Community Pavilion","date":"May 16, Thursday","time":"12:00","detailsURL":"https://summit-emea.adobe.com/emea/session/Tour 7/guided-tour-through-digital-transformation"}
,{"id":"session-3858","title":"SOL14 - Deliver epic B2B experiences with Marketo Engage","category":"SOL","room":"Solution Overview Room 14","date":"May 16, Thursday","time":"12:30","detailsURL":"https://summit-emea.adobe.com/emea/session/SOL14/deliver-epic-b2b-experiences-with-marketo-engage"}
,{"id":"session-3816","title":"ADM22 - Governance of the company-wide Elsevier Analytics Stack","category":"ADM","room":"Adobe Breakout Room 9","date":"May 16, Thursday","time":"13:00","detailsURL":"https://summit-emea.adobe.com/emea/session/ADM22/governance-of-the-company-wide-elsevier-analytics-stack"}
,{"id":"session-3609","title":"ADM6 - From Target to Analytics in a five-course menu","category":"ADM","room":"Adobe Breakout Room 10","date":"May 16, Thursday","time":"13:00","detailsURL":"https://summit-emea.adobe.com/emea/session/ADM6/adm6"}
,{"id":"session-3629","title":"ADV1 - Measuring ROI from an Omnichannel Advertising Strategy","category":"ADV","room":"Adobe Breakout Room 2","date":"May 16, Thursday","time":"13:00","detailsURL":"https://summit-emea.adobe.com/emea/session/ADV1/measuring-roi-from-an-omnichannel-advertising-strategy"}
,{"id":"session-3728","title":"AEP6 - Future directions in commerce: Content intelligence leads the way","category":"AEP","room":"Adobe Breakout Room 11","date":"May 16, Thursday","time":"13:00","detailsURL":"https://summit-emea.adobe.com/emea/session/AEP6/future-directions-in-commerce-content-intelligence-leads-the-way"}
,{"id":"session-3757","title":"B2B8 - From 10 to 100 million – how you scale your marketing smarter","category":"B2B","room":"Adobe Breakout Room 4","date":"May 16, Thursday","time":"13:00","detailsURL":"https://summit-emea.adobe.com/emea/session/B2B8/from-10-to-100-million-how-you-scale-your-marketing-smarter"}
,{"id":"session-3752","title":"CDN6 - Doing more, feeling better: how GlaxoSmithKline used Adobe Sign to become a Digital Document pioneer","category":"CDN","room":"Adobe Breakout Room 8","date":"May 16, Thursday","time":"13:00","detailsURL":"https://summit-emea.adobe.com/emea/session/CDN6/cdn6"}
,{"id":"session-3616","title":"CXM6 - Going global with Adobe Experience Manager","category":"CXM","room":"Adobe Breakout Room 5","date":"May 16, Thursday","time":"13:00","detailsURL":"https://summit-emea.adobe.com/emea/session/CXM6/going-global-with-adobe-experience-manager"}
,{"id":"session-3619","title":"CXM9 - Image is everything: Creating a brand-focused rich media delivery strategy","category":"CXM","room":"Adobe Breakout Room 3","date":"May 16, Thursday","time":"13:00","detailsURL":"https://summit-emea.adobe.com/emea/session/CXM9/image-is-everything-creating-a-brand-focused-rich-media-delivery-strategy"}
,{"id":"session-3760","title":"EDC4 - Commerce obsessed: How to map a B2C customer journey","category":"EDC","room":"Adobe Breakout Room 13","date":"May 16, Thursday","time":"13:00","detailsURL":"https://summit-emea.adobe.com/emea/session/EDC4/commerce-obsessed-how-to-map-a-b2c-customer-journey"}
,{"id":"session-3693","title":"EOM12 - Lottomatica: Optimising End-to-End Offer-Management with Adobe Campaign Classic","category":"EOM","room":"Adobe Breakout Room 6","date":"May 16, Thursday","time":"13:00","detailsURL":"https://summit-emea.adobe.com/emea/session/EOM12/lottomatica-optimising-end-to-end-offer-management-with-adobe-campaign-classic"}
,{"id":"session-3761","title":"INO7 - Experience is what connects us: How Adobe reinvented its marketing to deliver exceptional customer experiences","category":"INO","room":"Adobe Breakout Room 1","date":"May 16, Thursday","time":"13:00","detailsURL":"https://summit-emea.adobe.com/emea/session/INO7/experience-is-what-connects-us-how-adobe-reinvented-its-marketing-to-deliver-exceptional-customer-experiences"}
,{"id":"session-3825","title":"LAB39 - Easily make video content for social media, online ads, marketing and more","category":"LAB","room":"LAB Platinum Suite 3","date":"May 16, Thursday","time":"13:00","detailsURL":"https://summit-emea.adobe.com/emea/session/LAB39/lab39"}
,{"id":"session-3826","title":"LAB40 - A sneak peek into the Adobe Experience Platform, but now hands on","category":"LAB","room":"LAB Platinum Suite 4","date":"May 16, Thursday","time":"13:00","detailsURL":"https://summit-emea.adobe.com/emea/session/LAB40/lab40"}
,{"id":"session-3661","title":"OPS3 - Making websites faster: how to “commercialise an enabler”, and upskill the content editor","category":"OPS","room":"Adobe Breakout Room 7","date":"May 16, Thursday","time":"13:00","detailsURL":"https://summit-emea.adobe.com/emea/session/OPS3/making-websites-faster-how-to-commercialise-an-enabler-and-upskill-the-content-editor"}
,{"id":"session-3744","title":"PER9 - Tales from Target Support","category":"PER","room":"Adobe Breakout Room 12","date":"May 16, Thursday","time":"13:00","detailsURL":"https://summit-emea.adobe.com/emea/session/PER9/tales-from-target-support"}
,{"id":"session-3856","title":"SOL15 - AEM Sites 101: Agile Content Management solution for Marketers and IT","category":"SOL","room":"Solution Overview Room 14","date":"May 16, Thursday","time":"13:00","detailsURL":"https://summit-emea.adobe.com/emea/session/SOL15/sol15"}
,{"id":"session-3893","title":"Tour 8 - Guided Tour through Digital Transformation","category":"Tour","room":"Adobe Stand, Community Pavilion","date":"May 16, Thursday","time":"13:00","detailsURL":"https://summit-emea.adobe.com/emea/session/Tour 8/guided-tour-through-digital-transformation"}
,{"id":"session-3860","title":"SOL16 - Advertising at Adobe: Where ad tech meets martech and drives a connected advertising experience.","category":"SOL","room":"Solution Overview Room 14","date":"May 16, Thursday","time":"13:30","detailsURL":"https://summit-emea.adobe.com/emea/session/SOL16/advertising-at-adobe-where-ad-tech-meets-martech-and-drives-a-connected-advertising-experience"}
,{"id":"session-3645","title":"ADM14 - Personalisation 201: Online to offline customer journeys","category":"ADM","room":"Adobe Breakout Room 11","date":"May 16, Thursday","time":"14:00","detailsURL":"https://summit-emea.adobe.com/emea/session/ADM14/personalisation-201-online-to-offline-customer-journeys"}
,{"id":"session-3748","title":"ADM16 - Advanced Analysis with Adobe Analytics data feeds and R","category":"ADM","room":"Adobe Breakout Room 10","date":"May 16, Thursday","time":"14:00","detailsURL":"https://summit-emea.adobe.com/emea/session/ADM16/advanced-analysis-with-adobe-analytics-data-feeds-and-r"}
,{"id":"session-3767","title":"ADM21 - Accelerating the success of your Audience Manager practice – Pitfalls to avoid","category":"ADM","room":"Adobe Breakout Room 12","date":"May 16, Thursday","time":"14:00","detailsURL":"https://summit-emea.adobe.com/emea/session/ADM21/accelerating-the-success-of-your-audience-manager-practice-pitfalls-to-avoid"}
,{"id":"session-3688","title":"AEP3 - Adobe Experience Platform: Use cases for Cross Channel Activation","category":"AEP","room":"Adobe Breakout Room 13","date":"May 16, Thursday","time":"14:00","detailsURL":"https://summit-emea.adobe.com/emea/session/AEP3/adobe-experience-platform-use-cases-for-cross-channel-activation"}
,{"id":"session-3732","title":"AEP8 - Reimagining the future of customer experiences","category":"AEP","room":"Adobe Breakout Room 2","date":"May 16, Thursday","time":"14:00","detailsURL":"https://summit-emea.adobe.com/emea/session/AEP8/reimagining-the-future-of-customer-experiences"}
,{"id":"session-3708","title":"B2B9 - Time, love and intent data - a killer recipe for demand generation","category":"B2B","room":"Adobe Breakout Room 4","date":"May 16, Thursday","time":"14:00","detailsURL":"https://summit-emea.adobe.com/emea/session/B2B9/b2b9"}
,{"id":"session-3622","title":"CXM12 - Best practices to get to market fast with Adobe Experience Manager Sites​","category":"CXM","room":"Adobe Breakout Room 5","date":"May 16, Thursday","time":"14:00","detailsURL":"https://summit-emea.adobe.com/emea/session/CXM12/best-practices-to-get-to-market-fast-with-adobe-experience-manager-sites"}
,{"id":"session-3613","title":"CXM3 - Adobe Experience Manager Screens: Top 5 features for delivering in-venue experiences","category":"CXM","room":"Adobe Breakout Room 3","date":"May 16, Thursday","time":"14:00","detailsURL":"https://summit-emea.adobe.com/emea/session/CXM3/adobe-experience-manager-screens-top-5-features-for-delivering-in-venue-experiences"}
,{"id":"session-3691","title":"EOM5 - Achieve personalisation at scale with Adobe Campaign Standard","category":"EOM","room":"Adobe Breakout Room 6","date":"May 16, Thursday","time":"14:00","detailsURL":"https://summit-emea.adobe.com/emea/session/EOM5/achieve-personalisation-at-scale-with-adobe-campaign-standard"}
,{"id":"session-3763","title":"INO8 - The changing role of the CIO at the intersection of IT and marketing","category":"INO","room":"Adobe Breakout Room 1","date":"May 16, Thursday","time":"14:00","detailsURL":"https://summit-emea.adobe.com/emea/session/INO8/the-changing-role-of-the-cio-at-the-intersection-of-it-and-marketing"}
,{"id":"session-3678","title":"LAB25 - Getting the most out of Adobe Campaign Standard","category":"LAB","room":"LAB Platinum Suite 1","date":"May 16, Thursday","time":"14:00","detailsURL":"https://summit-emea.adobe.com/emea/session/LAB25/getting-the-most-out-of-adobe-campaign-standard"}
,{"id":"session-3679","title":"LAB26 - Server-side digital marketing","category":"LAB","room":"LAB Platinum Suite 2","date":"May 16, Thursday","time":"14:00","detailsURL":"https://summit-emea.adobe.com/emea/session/LAB26/server-side-digital-marketing"}
,{"id":"session-3680","title":"LAB27 - Build better ecommerce experiences through personalisation and loyalty","category":"LAB","room":"LAB Platinum Suite 3","date":"May 16, Thursday","time":"14:00","detailsURL":"https://summit-emea.adobe.com/emea/session/LAB27/lab27"}
,{"id":"session-3681","title":"LAB28 - Optimise campaigns with Algorithmic Modelling, Trait Recommendations and 2nd and 3rd party data","category":"LAB","room":"LAB Platinum Suite 4","date":"May 16, Thursday","time":"14:00","detailsURL":"https://summit-emea.adobe.com/emea/session/LAB28/optimise-campaigns-with-algorithmic-modelling-trait-recommendations-and-2nd-and-3rd-party-data"}
,{"id":"session-3817","title":"OPS10 - Best practices for Digital Experience company talent growth","category":"OPS","room":"Adobe Breakout Room 7","date":"May 16, Thursday","time":"14:00","detailsURL":"https://summit-emea.adobe.com/emea/session/OPS10/ops10"}
,{"id":"session-3830","title":"OPS12 - Marketing to a billion consumers: Adobe and WeChat in China","category":"OPS","room":"Adobe Breakout Room 8","date":"May 16, Thursday","time":"14:00","detailsURL":"https://summit-emea.adobe.com/emea/session/OPS12/ops12"}
,{"id":"session-3736","title":"OPS7 - Unlocking the value of social","category":"OPS","room":"Adobe Breakout Room 9","date":"May 16, Thursday","time":"14:00","detailsURL":"https://summit-emea.adobe.com/emea/session/OPS7/unlocking-the-value-of-social"}
,{"id":"session-3855","title":"SOL17 - Adobe Creative Cloud as a Design Platform","category":"SOL","room":"Solution Overview Room 14","date":"May 16, Thursday","time":"14:00","detailsURL":"https://summit-emea.adobe.com/emea/session/SOL17/sol17"}
,{"id":"session-3894","title":"Tour 9 - Guided Tour through Digital Transformation","category":"Tour","room":"Adobe Stand, Community Pavilion","date":"May 16, Thursday","time":"14:00","detailsURL":"https://summit-emea.adobe.com/emea/session/Tour 9/guided-tour-through-digital-transformation"}
,{"id":"session-3765","title":"SOL18 - Accelerate with Adobe Sign","category":"SOL","room":"Solution Overview Room 14","date":"May 16, Thursday","time":"14:30","detailsURL":"https://summit-emea.adobe.com/emea/session/SOL18/accelerate-with-adobe-sign"}
,{"id":"session-3646","title":"ADM15 - Experience-driven marketing with The Telegraph","category":"ADM","room":"Adobe Breakout Room 10","date":"May 16, Thursday","time":"15:00","detailsURL":"https://summit-emea.adobe.com/emea/session/ADM15/experience-driven-marketing-with-the-telegraph"}
,{"id":"session-3766","title":"ADM19 - Our latest and greatest Adobe Analytics tips","category":"ADM","room":"Adobe Breakout Room 11","date":"May 16, Thursday","time":"15:00","detailsURL":"https://summit-emea.adobe.com/emea/session/ADM19/our-latest-and-greatest-adobe-analytics-tips"}
,{"id":"session-3737","title":"ADM20 - Measuring Digital Experience can predict millions in revenue (and how TUI proved it)","category":"ADM","room":"Adobe Breakout Room 9","date":"May 16, Thursday","time":"15:00","detailsURL":"https://summit-emea.adobe.com/emea/session/ADM20/measuring-digital-experience-can-predict-millions-in-revenue-and-how-tui-proved-it"}
,{"id":"session-3689","title":"AEP4 - Adobe Experience Platform: Insights on ML & Cross Channel Learning","category":"AEP","room":"Adobe Breakout Room 13","date":"May 16, Thursday","time":"15:00","detailsURL":"https://summit-emea.adobe.com/emea/session/AEP4/adobe-experience-platform-insights-on-ml-cross-channel-learning"}
,{"id":"session-3758","title":"B2B10 - Deliver measurable and scalable campaigns in Marketo","category":"B2B","room":"Adobe Breakout Room 4","date":"May 16, Thursday","time":"15:00","detailsURL":"https://summit-emea.adobe.com/emea/session/B2B10/b2b10"}
,{"id":"session-3620","title":"CXM10 - Elevate your customer experience with enrolment and communications","category":"CXM","room":"Adobe Breakout Room 3","date":"May 16, Thursday","time":"15:00","detailsURL":"https://summit-emea.adobe.com/emea/session/CXM10/elevate-your-customer-experience-with-enrolment-and-communications"}
,{"id":"session-3722","title":"CXM18 - Tips and tricks to get the best from your AEM Implementations with a view into Allianz’s journey","category":"CXM","room":"Adobe Breakout Room 5","date":"May 16, Thursday","time":"15:00","detailsURL":"https://summit-emea.adobe.com/emea/session/CXM18/tips-and-tricks-to-get-the-best-from-your-aem-implementations-with-a-view-into-allianz-s-journey"}
,{"id":"session-3731","title":"CXM24 - Rebranding a global bank using the Adobe Experience Cloud - the iterative way!","category":"CXM","room":"Adobe Breakout Room 2","date":"May 16, Thursday","time":"15:00","detailsURL":"https://summit-emea.adobe.com/emea/session/CXM24/rebranding-a-global-bank-using-the-adobe-experience-cloud-the-iterative-way"}
,{"id":"session-3734","title":"EDC5 - Develop once. Apply to all. Strauss Coffee’s Global eCommerce Play","category":"EDC","room":"Adobe Breakout Room 8","date":"May 16, Thursday","time":"15:00","detailsURL":"https://summit-emea.adobe.com/emea/session/EDC5/develop-once-apply-to-all-strauss-coffee-s-global-ecommerce-play"}
,{"id":"session-3698","title":"EOM11 - Adobe Campaign Classic: stability and scalability to deliver a successful cross-channel campaign","category":"EOM","room":"Adobe Breakout Room 6","date":"May 16, Thursday","time":"15:00","detailsURL":"https://summit-emea.adobe.com/emea/session/EOM11/adobe-campaign-classic-stability-and-scalability-to-deliver-a-successful-cross-channel-campaign"}
,{"id":"session-3835","title":"INO9 - Getting emotional: Why the digital age is raising customer expectations and how to meet them","category":"INO","room":"Adobe Breakout Room 1","date":"May 16, Thursday","time":"15:00","detailsURL":"https://summit-emea.adobe.com/emea/session/INO9/getting-emotional-why-the-digital-age-is-raising-customer-expectations-and-how-to-meet-them"}
,{"id":"session-3682","title":"LAB29 - Drive cross-channel marketing in Adobe Campaign","category":"LAB","room":"LAB Platinum Suite 1","date":"May 16, Thursday","time":"15:00","detailsURL":"https://summit-emea.adobe.com/emea/session/LAB29/drive-cross-channel-marketing-in-adobe-campaign"}
,{"id":"session-3683","title":"LAB30 - Building a PWA (Progressive Web App) with AEM","category":"LAB","room":"LAB Platinum Suite 2","date":"May 16, Thursday","time":"15:00","detailsURL":"https://summit-emea.adobe.com/emea/session/LAB30/building-a-pwa-progressive-web-app-with-aem"}
,{"id":"session-3684","title":"LAB31 - Create, share and publish. Explore how to integrate the creativity and marketing process","category":"LAB","room":"LAB Platinum Suite 3","date":"May 16, Thursday","time":"15:00","detailsURL":"https://summit-emea.adobe.com/emea/session/LAB31/create-share-and-publish-explore-how-to-integrate-the-creativity-and-marketing-process"}
,{"id":"session-3685","title":"LAB32 - Revolutionise your trait strategy to discover new signals","category":"LAB","room":"LAB Platinum Suite 4","date":"May 16, Thursday","time":"15:00","detailsURL":"https://summit-emea.adobe.com/emea/session/LAB32/revolutionise-your-trait-strategy-to-discover-new-signals"}
,{"id":"session-3719","title":"OPS2 - The path to an experience-driven business: Capabilities that enable organisations to optimise the value of their customer interactions","category":"OPS","room":"Adobe Breakout Room 7","date":"May 16, Thursday","time":"15:00","detailsURL":"https://summit-emea.adobe.com/emea/session/OPS2/the-path-to-an-experience-driven-business-capabilities-that-enable-organisations-to-optimise-the-value-of-their-customer-interactions"}
,{"id":"session-3637","title":"PER1 - Personalisation all-stars: Tales from the trenches","category":"PER","room":"Adobe Breakout Room 12","date":"May 16, Thursday","time":"15:00","detailsURL":"https://summit-emea.adobe.com/emea/session/PER1/personalisation-all-stars-tales-from-the-trenches"}
,{"id":"session-3859","title":"SOL19 - Magento Commerce 101: Creating powerful B2C and B2B shopping experiences","category":"SOL","room":"Solution Overview Room 14","date":"May 16, Thursday","time":"15:00","detailsURL":"https://summit-emea.adobe.com/emea/session/SOL19/magento-commerce-101-creating-powerful-b2c-and-b2b-shopping-experiences"}
,{"id":"session-3895","title":"Tour 10 - Guided Tour through Digital Transformation","category":"Tour","room":"Adobe Stand, Community Pavilion","date":"May 16, Thursday","time":"15:00","detailsURL":"https://summit-emea.adobe.com/emea/session/Tour 10/guided-tour-through-digital-transformation"}
,{"id":"session-3851","title":"SOL20 - Adobe Experience Platform","category":"SOL","room":"Solution Overview Room 14","date":"May 16, Thursday","time":"15:30","detailsURL":"https://summit-emea.adobe.com/emea/session/SOL20/sol20"}
]
